name: 'API | GET People'
description: ''
endpoints:
  -
    httpMethods:
      - GET
    uri: api/people
    metadata:
      groupName: 'API | GET People'
      groupDescription: ''
      subgroup: ''
      subgroupDescription: ''
      title: |-
        Obtener una lista de personas

        Este endpoint devuelve una lista paginada de personajes de Star Wars.
      description: ''
      authenticated: false
      custom: []
    headers:
      Accept: application/json
      Authorization: 'Bearer <TOKEN>'
      Content-Type: application/json
    urlParameters: []
    cleanUrlParameters: []
    queryParameters:
      limit:
        name: limit
        description: 'Número de registros por página. Default: 10.'
        required: false
        example: 5
        type: integer
        enumValues: []
        exampleWasSpecified: true
        nullable: false
        custom: []
      offset:
        name: offset
        description: 'Número de registros a omitir. Default: 0.'
        required: false
        example: 10
        type: integer
        enumValues: []
        exampleWasSpecified: true
        nullable: false
        custom: []
    cleanQueryParameters:
      limit: 5
      offset: 10
    bodyParameters: []
    cleanBodyParameters: []
    fileParameters: []
    responses:
      -
        status: 200
        content: |-
          {
            "status": "success",
            "message": "Operación exitosa",
            "data": [
              {
                "id": 1,
                "name": "Luke Skywalker",
                "height": "172",
                "mass": "77",
                "hair_color": "blond",
                "skin_color": "fair",
                "eye_color": "blue",
                "birth_year": "19BBY",
                "gender": "male"
              }
            ],
            "pagination": {
              "total": 82,
              "limit": 10,
              "offset": 0,
              "next": "/api/people?limit=10&offset=10",
              "previous": null
            }
          }
        headers: []
        description: ''
        custom: []
      -
        status: 404
        content: |-
          {
            "status": "error",
            "message": "No se encontraron personas.",
            "errors": []
          }
        headers: []
        description: ''
        custom: []
      -
        status: 500
        content: |-
          {
            "status": "error",
            "message": "Error interno del servidor.",
            "error": "Detalles del error"
          }
        headers: []
        description: ''
        custom: []
    responseFields: []
    auth: []
    controller: null
    method: null
    route: null
    custom: []
  -
    httpMethods:
      - GET
    uri: 'api/people/{id}'
    metadata:
      groupName: 'API | GET People'
      groupDescription: ''
      subgroup: ''
      subgroupDescription: ''
      title: |-
        Obtener los detalles de una persona específica

        Este endpoint devuelve la información detallada de una persona por su ID.
      description: ''
      authenticated: false
      custom: []
    headers:
      Accept: application/json
      Authorization: 'Bearer <TOKEN>'
      Content-Type: application/json
    urlParameters:
      id:
        name: id
        description: 'El ID de la persona.'
        required: true
        example: 1
        type: integer
        enumValues: []
        exampleWasSpecified: true
        nullable: false
        custom: []
    cleanUrlParameters:
      id: 1
    queryParameters: []
    cleanQueryParameters: []
    bodyParameters: []
    cleanBodyParameters: []
    fileParameters: []
    responses:
      -
        status: 200
        content: |-
          {
            "status": "success",
            "message": "Operación exitosa",
            "data": {
                "id": 1,
                "name": "Luke Skywalker",
                "height": "172",
                "mass": "77",
                "hair_color": "blond",
                "skin_color": "fair",
                "eye_color": "blue",
                "birth_year": "19BBY",
                "gender": "male"
            }
          }
        headers: []
        description: ''
        custom: []
      -
        status: 404
        content: |-
          {
            "status": "error",
            "message": "Persona no encontrada.",
            "errors": []
          }
        headers: []
        description: ''
        custom: []
      -
        status: 500
        content: |-
          {
            "status": "error",
            "message": "Error interno del servidor.",
            "error": "Detalles del error"
          }
        headers: []
        description: ''
        custom: []
    responseFields: []
    auth: []
    controller: null
    method: null
    route: null
    custom: []
