## Autogenerated by Scribe. DO NOT MODIFY.

name: 'API | GET Planets'
description: ''
endpoints:
  -
    httpMethods:
      - GET
    uri: api/planets
    metadata:
      groupName: 'API | GET Planets'
      groupDescription: ''
      subgroup: ''
      subgroupDescription: ''
      title: |-
        Obtener una lista de planetas

        Este endpoint devuelve una lista paginada de planetas del universo de Star Wars.
      description: ''
      authenticated: false
      custom: []
    headers:
      Accept: application/json
      Authorization: 'Bearer <TOKEN>'
      Content-Type: application/json
    urlParameters: []
    cleanUrlParameters: []
    queryParameters:
      limit:
        name: limit
        description: 'Número de registros por página. Default: 10.'
        required: false
        example: 5
        type: integer
        enumValues: []
        exampleWasSpecified: true
        nullable: false
        custom: []
      offset:
        name: offset
        description: 'Número de registros a omitir. Default: 0.'
        required: false
        example: 10
        type: integer
        enumValues: []
        exampleWasSpecified: true
        nullable: false
        custom: []
    cleanQueryParameters:
      limit: 5
      offset: 10
    bodyParameters: []
    cleanBodyParameters: []
    fileParameters: []
    responses:
      -
        status: 200
        content: |-
          {
            "status": "success",
            "message": "Operación exitosa",
            "data": [
              {
                "id": 1,
                "name": "Tatooine",
                "rotation_period": "23",
                "orbital_period": "304",
                "diameter": "10465",
                "climate": "arid",
                "gravity": "1 standard",
                "terrain": "desert",
                "surface_water": "1",
                "population": "200000"
              }
            ],
            "pagination": {
              "total": 60,
              "limit": 10,
              "offset": 0,
              "next": "/api/planets?limit=10&offset=10",
              "previous": null
            }
          }
        headers: []
        description: ''
        custom: []
      -
        status: 404
        content: |-
          {
            "status": "error",
            "message": "No se encontraron planetas.",
            "errors": []
          }
        headers: []
        description: ''
        custom: []
      -
        status: 500
        content: |-
          {
            "status": "error",
            "message": "Error interno del servidor.",
            "error": "Detalles del error"
          }
        headers: []
        description: ''
        custom: []
    responseFields: []
    auth: []
    controller: null
    method: null
    route: null
    custom: []
  -
    httpMethods:
      - GET
    uri: 'api/planets/{id}'
    metadata:
      groupName: 'API | GET Planets'
      groupDescription: ''
      subgroup: ''
      subgroupDescription: ''
      title: |-
        Obtener los detalles de un planeta específico

        Este endpoint devuelve la información detallada de un planeta por su ID.
      description: ''
      authenticated: false
      custom: []
    headers:
      Accept: application/json
      Authorization: 'Bearer <TOKEN>'
      Content-Type: application/json
    urlParameters:
      id:
        name: id
        description: 'El ID del planeta.'
        required: true
        example: 1
        type: integer
        enumValues: []
        exampleWasSpecified: true
        nullable: false
        custom: []
    cleanUrlParameters:
      id: 1
    queryParameters: []
    cleanQueryParameters: []
    bodyParameters: []
    cleanBodyParameters: []
    fileParameters: []
    responses:
      -
        status: 200
        content: |-
          {
            "status": "success",
            "message": "Operación exitosa",
            "data": {
                "id": 1,
                "name": "Tatooine",
                "rotation_period": "23",
                "orbital_period": "304",
                "diameter": "10465",
                "climate": "arid",
                "gravity": "1 standard",
                "terrain": "desert",
                "surface_water": "1",
                "population": "200000"
            }
          }
        headers: []
        description: ''
        custom: []
      -
        status: 404
        content: |-
          {
            "status": "error",
            "message": "Planeta no encontrado.",
            "errors": []
          }
        headers: []
        description: ''
        custom: []
      -
        status: 500
        content: |-
          {
            "status": "error",
            "message": "Error interno del servidor.",
            "error": "Detalles del error"
          }
        headers: []
        description: ''
        custom: []
    responseFields: []
    auth: []
    controller: null
    method: null
    route: null
    custom: []
